{
    "abilities": [
        "FierceFolk"
    ],
    "armour": 3,
    "attribute_level": 5,
    "combat_proficiencies": [
        {
            "damage": 4,
            "injury": 14,
            "rating": 3,
            "special_damages": [
                "Pierce"
            ],
            "weapon": "Spear"
        },
        {
            "damage": 6,
            "injury": 18,
            "rating": 3,
            "special_damages": [
                "Break Shield"
            ],
            "weapon": "Long-hafted Axe"
        }
    ],
    "endurance": {
        "max": 20
    },
    "features": [
        "Cruel",
        "Though"
    ],
    "hate": {
        "max": 5
    },
    "hate_type": "Resolve",
    "might": 1,
    "name": "Southerner Champion",
    "parry": 2
}
