{
    "available": true,
    "available_at_creation": false,
    "description": "Raise your maximum Endurance rating by 1. At the end of each Combat scene, if you are not Wounded or Miserable you recover a number of Endurance points equal to your HEART or WISDOM score, whichever is higher.",
    "restricted_to": [
        "ManOfBree"
    ],
    "title": "Defiance"
}
