{
    "available": true,
    "available_at_creation": false,
    "description": "Raise your maximum Hope rating by 1 point. During the Adventuring Phase you can become Inspired on a number of rolls equal to your WISDOM rating.",
    "restricted_to": [
        "ElfOfLindon"
    ],
    "title": "Elbereth Gilthoniel!"
}
