{
    "available": false,
    "available_at_creation": false,
    "description": "If you are not Miserable, you can spend 1 point of Hope to achieve a Magical success on a skill roll. In addition, add 1 point to one Attribute of your choice.",
    "restricted_to": [
        "HighElfOfRivendell"
    ],
    "title": "Elven-Wise"
}
