{
    "available": false,
    "available_at_creation": false,
    "description": "Available weapons: axe, bow, club, cudgel, dagger, short sword, short spear, spear. They cannot use a great shield",
    "title": "Halflings"
}
