{
    "available": true,
    "available_at_creation": false,
    "description": "With the help of the Loremaster, use the rules on page 161 to create either a Marvellous Artefact, or a Famous Weapon possessing a single Enchanted Reward and up to 2 normal Rewards. The item is generally of N\u00famen\u00f3rean craftsmanship, but might even be of Elven or Dwarven make. When you retire, this object is passed on to your heir as an additional heirloom.",
    "restricted_to": [
        "RangerOfTheNorth"
    ],
    "title": "Heir of Arnor"
}
