{
    "available": true,
    "available_at_creation": false,
    "description": "Next Yule, you may either add a single Enchanted Reward of Dwarven craftsmanship to a mail armour or close combat weapon of your choice, or create a Marvellous Artefact (your choice).",
    "restricted_to": [
        "DwarfOfNogrodOrBelegost"
    ],
    "title": "Telchar's Secrets"
}
