{
    "available": true,
    "available_at_creation": false,
    "description": "When you are Wounded and must roll to determine the severity of your injury, you roll two Feat Dice instead of one and choose the better of the two results. In addition, double your STRENGTH score when calculating the number of Endurance points you recover when resting.",
    "implemented": true,
    "restricted_to": [
        "HobbitOfTheShire",
        "HobbitOfBree"
    ],
    "title": "Tough as old Tree-roots"
}
