{
    "description": "Spend 1 Hate to cancel a Wound. When an attack inflicts damage to the creature that would cause it to go to zero Endurance, spend 1 Hate to bring the creatures back to full Endurance instead. This ability is ineffective against Player-heroes wielding a magical weapon enchanted with spells for the Bane of the Undead.",
    "title": "Deathless"
}
