{
    "description": "Spend 1 Hate to make all Player-heroes in sight gain 2 Shadow points (Dread). Those who fail their Shadow test are daunted and cannot spend Hope for the rest of the fight.",
    "title": "Strike Fear"
}
