{
    "attributes": [
        [
            5,
            7,
            2
        ],
        [
            4,
            7,
            3
        ],
        [
            5,
            6,
            3
        ],
        [
            4,
            6,
            4
        ],
        [
            5,
            5,
            4
        ],
        [
            6,
            6,
            2
        ]
    ],
    "combat_skills": [
        "Bows",
        "Swords"
    ],
    "culture_blessings": [
        "StoutHearted"
    ],
    "derived_stats": {
        "endurance": 20,
        "hope": 8,
        "parry": 12
    },
    "distinctive_features": [
        "Bold",
        "Eager",
        "Fair",
        "Fierce",
        "Generous",
        "Proud",
        "Tall",
        "Wilful"
    ],
    "favoured_skills": [
        "Athletics",
        "Enhearten"
    ],
    "skills": [
        1,
        1,
        0,
        2,
        1,
        1,
        2,
        1,
        2,
        0,
        2,
        2,
        3,
        0,
        1,
        1,
        0,
        1
    ],
    "treasures": 90
}
