{
    "attributes": [
        [
            3,
            6,
            5
        ],
        [
            3,
            7,
            4
        ],
        [
            2,
            7,
            5
        ],
        [
            4,
            6,
            4
        ],
        [
            4,
            5,
            5
        ],
        [
            2,
            6,
            6
        ]
    ],
    "combat_skills": [
        "Bows",
        "Swords"
    ],
    "culture_blessings": [
        "HobbitSense",
        "Halflings"
    ],
    "derived_stats": {
        "endurance": 18,
        "hope": 10,
        "parry": 12
    },
    "distinctive_features": [
        "Eager",
        "Fair-spoken",
        "Fairy-blood",
        "Faithful",
        "Honourable",
        "Inquisitive",
        "Keen-eyed",
        "Merry",
        "Rustic"
    ],
    "favoured_skills": [
        "Courtesy",
        "Stealth"
    ],
    "skills": [
        0,
        0,
        2,
        0,
        2,
        1,
        0,
        0,
        2,
        1,
        2,
        0,
        2,
        3,
        0,
        0,
        3,
        0
    ],
    "treasures": 30
}
