{
    "attributes": [
        [
            2,
            5,
            7
        ],
        [
            3,
            4,
            7
        ],
        [
            3,
            5,
            6
        ],
        [
            4,
            4,
            6
        ],
        [
            4,
            5,
            5
        ],
        [
            2,
            6,
            6
        ]
    ],
    "combat_skills": [
        "Axes",
        "Spears"
    ],
    "culture_blessings": [
        "BreeBlood",
        "Halflings"
    ],
    "derived_stats": {
        "endurance": 18,
        "hope": 10,
        "parry": 12
    },
    "distinctive_features": [
        "Cunning",
        "Fair-spoken",
        "Faithful",
        "Generous",
        "Inquisitive",
        "Patient",
        "Rustic",
        "True-hearted"
    ],
    "favoured_skills": [
        "Insight",
        "Riddle"
    ],
    "skills": [
        0,
        1,
        1,
        1,
        1,
        2,
        2,
        1,
        2,
        0,
        3,
        0,
        2,
        1,
        1,
        1,
        2,
        0
    ],
    "treasures": 30
}
