{
    "advantage": "Fellowship points can be used to get a magical success on Awe, Persuade or Riddle rolls. After a council, you can also increase its success by 1 per fellowship point spent",
    "fellowship_points": 0,
    "name": "Saruman"
}
