{
    "description": "Choose this undertaking to focus on mending your spiritual injuries - spend 5 Adventure points and remove 1 Shadow Scar (see Harden Will, page 137)",
    "free_for": null,
    "title": "Heal Scars",
    "yule": true
}
